Snowfall
================

    ## # A tibble: 74 x 11
    ##    id    latitude longitude elevation state name  gsn_flag wmo_id element
    ##    <chr>    <dbl>     <dbl>     <dbl> <chr> <chr> <chr>    <chr>  <chr>  
    ##  1 USC0…     41.2     -73.2        43 CT    BRID… ""       ""     TMAX   
    ##  2 USC0…     41.2     -73.2        43 CT    BRID… ""       ""     TMIN   
    ##  3 USC0…     41.2     -73.2        43 CT    BRID… ""       ""     TOBS   
    ##  4 USC0…     41.2     -73.2        43 CT    BRID… ""       ""     PRCP   
    ##  5 USC0…     41.2     -73.2        43 CT    BRID… ""       ""     SNOW   
    ##  6 USC0…     41.2     -73.2        43 CT    BRID… ""       ""     SNWD   
    ##  7 USC0…     41.2     -73.2        43 CT    BRID… ""       ""     WT01   
    ##  8 USC0…     41.2     -73.2        43 CT    BRID… ""       ""     WT03   
    ##  9 USC0…     41.2     -73.2        43 CT    BRID… ""       ""     WT04   
    ## 10 USC0…     41.2     -73.2        43 CT    BRID… ""       ""     WT05   
    ## # ... with 64 more rows, and 2 more variables: first_year <int>,
    ## #   last_year <int>
…
    ## # A tibble: 53 x 3
    ##    `week(date2)` direction speed
    ##            <dbl>     <dbl> <dbl>
    ##  1             1       211   124
    ##  2             2       256   108
    ##  3             3       190    74
    ##  4             4       183   153
    ##  5             5       267   114
    ##  6             6       239   128
    ##  7             7       236   130
    ##  8             8       260   110
    ##  9             9       234   147
    ## 10            10       271   142
    ## # ... with 43 more rows
…
